{
    "name": "Frozen lake",
    "id": "5",
    "files": {
        "colormap": "colormap.png",
        "textured": "textured.jpg",
        "background": "background.png"
    },
    "start": {
        "pos": [300,300],
        "rotation": 90
    },
    "colormap": {
        "#00ff00": {
            "name": "grass",
            "slip": {
                "color": "rgba(90,53,20,0.7)",
                "sound": "grass"
            },
            "staticFriction": 1800,
            "kineticFriction": 1000,
            "drag": 70
        },
        "#000000": {
            "name": "road",
            "slip": {
                "color": "rgba(0,0,0,0.4)",
                "sound": "asphalt"
            },
            "staticFriction": 2300,
            "kineticFriction": 1600,
            "drag": 0
        },
        "#0000ff": {
            "name": "slippery",
            "slip": {
                "color": "rgba(150,150,150,0.2)",
                "sound": "grass"
            },
            "staticFriction": 900,
            "kineticFriction": 600,
            "drag": 0
        },
        "#ff0000": {
            "name": "solid",
            "type": "solid"
        }
    },
    "tracks": {
        "Around the lake": {
            "start": {
                "pos": [1120,304],
                "rotation": 270
            },
            "checkpoints": [
                {"x1": 1616, "y1": 196, "x2": 1616, "y2": 412},
                {"x2": 2192, "y2": 220, "x1": 1996, "y1": 472},
                {"x1": 2080, "y1": 868, "x2": 2312, "y2": 676},
                {"x1": 2976, "y1": 1004, "x2": 3248, "y2": 984},
                {"x2": 2652, "y2": 1192, "x1": 2844, "y1": 1356},
                {"x2": 2196, "y2": 1744, "x1": 2312, "y1": 1964},
                {"x1": 1236, "y1": 1768, "x2": 1228, "y2": 1968},
                {"x1": 100, "y1": 1664, "x2": 376, "y2": 1664},
                {"x1": 400, "y1": 1252, "x2": 400, "y2": 1528},
                {"x1": 1176, "y1": 1528, "x2": 1176, "y2": 1728},
                {"x1": 1732, "y1": 1328, "x2": 2040, "y2": 1340},
                {"x1": 1217, "y1": 1136, "x2": 1216, "y2": 900},
                {"x1": 252, "y1": 676, "x2": 592, "y2": 676},
                {"x1": 1120, "y1": 196, "x2": 1120, "y2": 412}
            ]
        },
        "Around the lake-reverse": {
            "start": {
                "pos": [1120,304],
                "rotation": 90
            },
            "checkpoints": [
				{"x2": 252, "y2": 676, "x1": 592, "y1": 676},
				{"x2": 1217, "y2": 1136, "x1": 1216, "y1": 900},
				{"x2": 1732, "y2": 1328, "x1": 2040, "y1": 1340},
				{"x2": 1175, "y2": 1528, "x1": 1176, "y1": 1728},
				{"x2": 399, "y2": 1252, "x1": 400, "y1": 1528},
				{"x2": 100, "y2": 1664, "x1": 376, "y1": 1664},
				{"x2": 1236, "y2": 1768, "x1": 1228, "y1": 1968},
				{"x1": 2196, "y1": 1744, "x2": 2312, "y2": 1964},
				{"x1": 2652, "y1": 1192, "x2": 2844, "y2": 1356},
				{"x2": 2976, "y2": 1004, "x1": 3248, "y1": 984},
				{"x2": 2080, "y2": 868, "x1": 2312, "y1": 676},
				{"x1": 2192, "y1": 220, "x2": 1996, "y2": 472},
                {"x2": 1615, "y2": 196, "x1": 1616, "y1": 412},
                {"x2": 1119, "y2": 196, "x1": 1120, "y1": 412}
            ]
        },
        "Through ice and snow": {
            "start": {
                "pos": [1120,304],
                "rotation": 270
            },
            "checkpoints": [
                {"x1": 1616, "y1": 196, "x2": 1616, "y2": 412},
                {"x2": 2192, "y2": 220, "x1": 1996, "y1": 472},
                {"x1": 2080, "y1": 868, "x2": 2312, "y2": 676},
                
                {"x2": 2224, "y2": 896, "x1": 2548, "y1": 896, "display": true},
                {"x2": 2212, "y2": 1244, "x1": 2488, "y1": 1296, "display": true},
                {"x2": 2066, "y2": 1708, "x1": 2378, "y1": 1714, "display": true},
                {"x1": 1945, "y1": 1788, "x2": 1944, "y2": 1980, "display": true},
                
                {"x1": 1236, "y1": 1768, "x2": 1228, "y2": 1968},
                {"x1": 100, "y1": 1664, "x2": 376, "y2": 1664},
                
                {"x1": 368, "y1": 1260, "x2": 592, "y2": 1268, "display": true},
                {"x2": 470, "y2": 1038, "x1": 664, "y1": 916, "display": true},
                
                {"x1": 252, "y1": 676, "x2": 592, "y2": 676},
                {"x1": 1120, "y1": 196, "x2": 1120, "y2": 412}
            ],
            "layout":"Through ice and snow"
        },
        "Slalom": {
            "start": {
                "pos": [780,300],
                "rotation": 270
            },
            "checkpoints": [
				{"x1": 1244, "y1": 298, "x2": 1244, "y2": 418, "display": true},
                {"x1": 1688, "y1": 118, "x2": 1688, "y2": 298, "display": true},

                {"x2": 2192, "y2": 220, "x1": 1996, "y1": 472},
                {"x1": 2080, "y1": 868, "x2": 2312, "y2": 676},  
                {"x2": 2224, "y2": 896, "x1": 2548, "y1": 896, "display": true},
                {"x2": 2212, "y2": 1244, "x1": 2488, "y1": 1296, "display": true},
                {"x2": 2066, "y2": 1708, "x1": 2378, "y1": 1714, "display": true},

                {"x2": 1771, "y2": 1888, "x1": 1772, "y1": 1988, "display": true},
                {"x2": 1291, "y2": 1888, "x1": 1292, "y1": 1776, "display": true},
                {"x2": 813, "y2": 1888, "x1": 814, "y1": 1988, "display": true},
                
                {"x1": 100, "y1": 1664, "x2": 376, "y2": 1664},
                {"x1": 368, "y1": 1260, "x2": 592, "y2": 1268, "display": true},
                {"x2": 470, "y2": 1038, "x1": 664, "y1": 916, "display": true},
                {"x1": 252, "y1": 676, "x2": 592, "y2": 676},
                {"x1": 780, "y1": 196, "x2": 780, "y2": 412}
            ],
            "layout":"Slalom"
        }
    },
    "layouts": {
        "Through ice and snow": {
            "objects": [
                {"name": "trafficCone", "pos": [2566, 820]},
                {"name": "trafficCone", "pos": [2430, 1790]},
                {"name": "trafficCone", "pos": [530, 1430]},
                {"name": "trafficCone", "pos": [764, 1022]}
            ],
            "visible": true
        },
        "Slalom": {
            "objects": [
                {"name": "trafficCone", "pos": [2566, 820]},
                {"name": "trafficCone", "pos": [2430, 1790]},
                {"name": "trafficCone", "pos": [530, 1430]},
                {"name": "trafficCone", "pos": [764, 1022]},
                
                {"name": "trafficCone", "pos": [1244, 298]},
                {"name": "trafficCone", "pos": [1688, 298]},
                
                {"name": "trafficCone", "pos": [1772, 1888]},
                {"name": "trafficCone", "pos": [1292, 1888]},
                {"name": "trafficCone", "pos": [814, 1888]}
            ],
            "visible": true
        }
    }
}
